[
	{
        "alternateName": "schorlashipCertificate",
        "physical": false,
        "additionalType": "AttachmentType",
        "description": "Βεβαίωση χορήγησης υποτροφίας τρέχοντος ακαδημαϊκού έτους από ΥΠΑΙΘ",
        "name": "Βεβαίωση υποτροφίας"
    },
     {
        "alternateName": "disabilityCertificate",
        "physical": false,
        "additionalType": "AttachmentType",
        "description": "Βεβαίωση Υγειονομικής Επιτροπής για Αναπηρία",
        "name": "Βεβαίωση Υγειονομικής Επιτροπής για Αναπηρία"
    },
     {
        "alternateName": "familyDeclaration",
        "physical": false,
        "additionalType": "AttachmentType",
        "description": "Πιστοποιητικό οικογενειακής κατάστασης",
        "name": "Πιστοποιητικό οικογενειακής κατάστασης"
    },
    {
        "alternateName": "studentUnemploymentCertificate",
        "physical": false,
        "additionalType": "AttachmentType",
        "description": "Βεβαίωση επιδότησης ανεργίας από υποκατάστημα του ΟΑΕΔ (προσωπική)",
        "name": "Βεβαίωση επιδόματος ανεργίας φοιτητή"
    },
     {
        "alternateName": "documentOfPermanentFamilyAddress",
        "physical": false,
        "additionalType": "AttachmentType",
        "description": "Έγγραφο Δημόσιας Αρχής ή υπηρεσιών ή λογαριασμών οργανισμών κοινής ωφελείας, από το οποίο να προκύπτει ο τόπος μόνιμης κατοικίας της οικογένειας του φοιτητή",
        "name": "Απόδειξη μόνιμης κατοικίας οικογένειας φοιτητή"
    },
     {
        "alternateName": "deathCertificate",
        "physical": false,
        "additionalType": "AttachmentType",
        "description": "Ληξιαρχική πράξη θανάτου για απορφανισθέντες (μέχρι και 25 ετών)",
        "name": "Ληξιαρχική πράξη θανάτου για απορφανισθέντες (μέχρι και 25 ετών)"
    },
 	{
        "alternateName": "studentTaxIncomeDocument",
        "physical": false,
        "additionalType": "AttachmentType",
        "description": "Εκκαθαριστικό σημείωμα φοιτητή",
        "name": "Εκκαθαριστικό σημείωμα φοιτητή"
    },
    {
        "alternateName": "studentTaxE1Document",
        "physical": false,
        "additionalType": "AttachmentType",
        "description": "Έντυπο Ε1 φοιτητή",
        "name": "Έντυπο Ε1 φοιτητή"
    },   
     {
        "alternateName": "studentIncomeCertificate",
        "physical": false,
        "additionalType": "AttachmentType",
        "description": "Βεβαίωση εισοδήματος φοιτητή (όταν δεν υποβάλλει φορολογική δήλωση)",
        "name": "Βεβαίωση εισοδήματος φοιτητή "
    },
    {
        "alternateName": "studentSpouseUnemploymentCertificate",
        "physical": false,
        "additionalType": "AttachmentType",
        "description": "Βεβαίωση επιδότησης ανεργίας από υποκατάστημα του ΟΑΕΔ (συζύγου)",
        "name": "Βεβαίωση επιδόματος ανεργίας συζύγου"
    },
    {
        "alternateName": "studentSpouseTaxIncomeDocument",
        "physical": false,
        "additionalType": "AttachmentType",
        "description": "Εκκαθαριστικό σημείωμα συζύγου",
        "name": "Εκκαθαριστικό σημείωμα συζύγου"
    },
    {
        "alternateName": "studentSpouseTaxE1Document",
        "physical": false,
        "additionalType": "AttachmentType",
        "description": "Έντυπο Ε1 συζύγου",
        "name": "Έντυπο Ε1 συζύγου"
    },
    {
        "alternateName": "studentParentsUnemploymentCertificate",
        "physical": false,
        "additionalType": "AttachmentType",
        "description": "Βεβαίωση επιδότησης ανεργίας από υποκατάστημα του ΟΑΕΔ (γονέων)",
        "name": "Βεβαίωση επιδόματος ανεργίας γονέων"
    },
 	{
        "alternateName": "studentParentsTaxIncomeDocument",
        "physical": false,
        "additionalType": "AttachmentType",
        "description": "Εκκαθαριστικό σημείωμα οικογένειας γονέων φοιτητή",
        "name": "Εκκαθαριστικό σημείωμα οικογένειας γονέων φοιτητή"
    },   
    {
        "alternateName": "studentParentsTaxE1Document",
        "physical": false,
        "additionalType": "AttachmentType",
        "description": "Έντυπο Ε1 οικογένειας γονέων φοιτητή",
        "name": "Έντυπο Ε1 οικογένειας γονέων φοιτητή"
    },  
   {
        "alternateName": "solemnDeclaration",
        "physical": false,
        "additionalType": "AttachmentType",
        "description": "Υπεύθυνη Δήλωση γονέα για διαμονή φοιτητή μαζί του και ανάληψη εξόδων του αποκλειστικά (για υποβολή εκκαθαριστικού μόνο του ενός γονέα)",
        "name": "Υπεύθυνη Δήλωση γονέα για διαμονή φοιτητή μαζί του και ανάληψη εξόδων του αποκλειστικά (για υποβολή εκκαθαριστικού μόνο του ενός γονέα)"
    },
    {
        "alternateName": "familyIncomeCertificate",
        "physical": false,
        "additionalType": "AttachmentType",
        "description": "Βεβαίωση εισοδήματος οικογένειας γονέων φοιτητή (όταν δεν υποβάλουν φορολογική δήλωση)",
        "name": "Βεβαίωση εισοδήματος οικογένειας γονέων φοιτητή"
    },
    {
        "alternateName": "studentFamilyWithManyChildrenCertificate",
        "physical": false,
        "additionalType": "AttachmentType",
        "description": "Βεβαίωση Ομοσπονδίας Πολυτέκνων Ελλάδας για έγγαμο πολύτεκνο φοιτητή",
        "name": "Βεβαίωση Ομοσπονδίας Πολυτέκνων Ελλάδας για έγγαμο πολύτεκνο φοιτητή "
    },
    {
        "alternateName": "studentParentsFamilyWithManyChildrenCertificate",
        "physical": false,
        "additionalType": "AttachmentType",
        "description": "Βεβαίωση Ομοσπονδίας Πολυτέκνων Ελλάδας για οικογένεια γονέων φοιτητή (μέχρι και 25 ετών)",
        "name": "Βεβαίωση Ομοσπονδίας Πολυτέκνων Ελλάδας για οικογένεια γονέων φοιτητή"
    },
    {
        "alternateName": "copyOrRetirementDeed",
        "physical": false,
        "additionalType": "AttachmentType",
        "description": "Αντίγραφο πράξης συνταξιοδότησης για τέκνα θύματος τρομοκρατίας (μέχρι και 25 ετών)",
        "name": "Αντίγραφο πράξης συνταξιοδότησης για τέκνα θύματος τρομοκρατίας"
    },
    {
        "alternateName": "divorceJudgment",
        "physical": false,
        "additionalType": "AttachmentType",
        "description": "Δικαστική απόφαση διαζυγίου (για υποβολή εκκαθαριστικού μόνο του ενός γονέα)",
        "name": "Δικαστική απόφαση διαζυγίου (για υποβολή εκκαθαριστικού μόνο του ενός γονέα)"
    },                      
    {
        "alternateName": "foreignFamilyIncomeCertificate",
        "physical": false,
        "additionalType": "AttachmentType",
        "description": "Μεταφρασμένη βεβαίωση αρμόδιας Δημόσιας Οικονομικής Υπηρεσίας της χώρας προέλευσης για οικογενειακό εισόδημα, με την αντίστοιχη ισοτιμία σε ευρώ (για Αλλοδαπούς)",
        "name": "Μεταφρασμένη βεβαίωση αρμόδιας Δημόσιας Οικονομικής Υπηρεσίας της χώρας προέλευσης για οικογενειακό εισόδημα, με την αντίστοιχη ισοτιμία σε ευρώ (για Αλλοδαπούς)"
    },
    {
        "alternateName": "studentSpouseForeignIncomeCertificate",
        "physical": false,
        "additionalType": "AttachmentType",
        "description": "Μεταφρασμένη βεβαίωση αρμόδιας Δημόσιας Οικονομικής Υπηρεσίας της χώρας προέλευσης για εισόδημα συζύγου, με την αντίστοιχη ισοτιμία σε ευρώ (για Αλλοδαπούς)",
        "name": "Μεταφρασμένη βεβαίωση αρμόδιας Δημόσιας Οικονομικής Υπηρεσίας της χώρας προέλευσης για εισόδημα συζύγου, με την αντίστοιχη ισοτιμία σε ευρώ (για Αλλοδαπούς)"
    },
    {
        "alternateName": "studentChildrenForeignIncomeCertificate",
        "physical": false,
        "additionalType": "AttachmentType",
        "description": "Μεταφρασμένη βεβαίωση αρμόδιας Δημόσιας Οικονομικής Υπηρεσίας της χώρας προέλευσης για εισόδημα τέκνων, με την αντίστοιχη ισοτιμία σε ευρώ (για Αλλοδαπούς)",
        "name": "Μεταφρασμένη βεβαίωση αρμόδιας Δημόσιας Οικονομικής Υπηρεσίας της χώρας προέλευσης για εισόδημα τέκνων, με την αντίστοιχη ισοτιμία σε ευρώ (για Αλλοδαπούς)"
    },
    {
        "alternateName": "studentSiblingForeignIncomeCertificate",
        "physical": false,
        "additionalType": "AttachmentType",
        "description": "Μεταφρασμένη βεβαίωση αρμόδιας Δημόσιας Οικονομικής Υπηρεσίας της χώρας προέλευσης για εισόδημα ανήλικων τέκνων, με την αντίστοιχη ισοτιμία σε ευρώ (για Αλλοδαπούς)",
        "name": "Μεταφρασμένη βεβαίωση αρμόδιας Δημόσιας Οικονομικής Υπηρεσίας της χώρας προέλευσης για εισόδημα ανήλικων τέκνων, με την αντίστοιχη ισοτιμία σε ευρώ (για Αλλοδαπούς)"
    },
     {
        "alternateName": "studentCyprusIncomeCertificate",
        "physical": false,
        "additionalType": "AttachmentType",
        "description": "Βεβαίωση του Τμήματος Εσωτερικών Προσόδων του Υπουργείου Οικονομικών της χώρας τους, στην οποία θα φαίνεται το εισόδημα του φοιτητή/τριας, επικυρωμένο από το Γεν.Προξενείο Κύπρου.",
        "name": "Βεβαίωση του Τμήματος Εσωτερικών Προσόδων του Υπουργείου Οικονομικών της χώρας τους, στην οποία θα φαίνεται το εισόδημα του φοιτητή/τριας, επικυρωμένο από το Γεν.Προξενείο Κύπρου."
    }, 
    {
        "alternateName": "familyCyprusIncomeCertificate",
        "physical": false,
        "additionalType": "AttachmentType",
        "description": "Βεβαίωση του Τμήματος Εσωτερικών Προσόδων του Υπουργείου Οικονομικών της χώρας τους, στην οποία θα φαίνεται το οικογενειακό εισόδημα, επικυρωμένο από το Γεν.Προξενείο Κύπρου.",
        "name": "Βεβαίωση του Τμήματος Εσωτερικών Προσόδων του Υπουργείου Οικονομικών της χώρας τους, στην οποία θα φαίνεται το οικογενειακό εισόδημα, επικυρωμένο από το Γεν.Προξενείο Κύπρου."
    }, 
    {
        "alternateName": "siblingsCyprusIncomeCertificate",
        "physical": false,
        "additionalType": "AttachmentType",
        "description": "Βεβαίωση του Τμήματος Εσωτερικών Προσόδων του Υπουργείου Οικονομικών της χώρας τους, στην οποία θα φαίνεται το εισόδημα των ανήλικων τέκνων, επικυρωμένο από το Γεν.Προξενείο Κύπρου.",
        "name": "Βεβαίωση του Τμήματος Εσωτερικών Προσόδων του Υπουργείου Οικονομικών της χώρας τους, στην οποία θα φαίνεται το εισόδημα των ανήλικων τέκνων, επικυρωμένο από το Γεν.Προξενείο Κύπρου."
    },
    {
        "alternateName": "studentSpouseCyprusIncomeCertificate",
        "physical": false,
        "additionalType": "AttachmentType",
        "description": "Βεβαίωση του Τμήματος Εσωτερικών Προσόδων του Υπουργείου Οικονομικών της χώρας τους, στην οποία θα φαίνεται το εισόδημα συζύγου, επικυρωμένο από το Γεν.Προξενείο Κύπρου.",
        "name": "Βεβαίωση του Τμήματος Εσωτερικών Προσόδων του Υπουργείου Οικονομικών της χώρας τους, στην οποία θα φαίνεται το εισόδημα συζύγου, επικυρωμένο από το Γεν.Προξενείο Κύπρου."
    },  
    {
        "alternateName": "studentChildrenCyprusIncomeCertificate",
        "physical": false,
        "additionalType": "AttachmentType",
        "description": "Βεβαίωση του Τμήματος Εσωτερικών Προσόδων του Υπουργείου Οικονομικών της χώρας τους, στην οποία θα φαίνεται το εισόδημα τέκνων, επικυρωμένο από το Γεν.Προξενείο Κύπρου.",
        "name": "Βεβαίωση του Τμήματος Εσωτερικών Προσόδων του Υπουργείου Οικονομικών της χώρας τους, στην οποία θα φαίνεται το εισόδημα τέκνων, επικυρωμένο από το Γεν.Προξενείο Κύπρου."
     },                     
    {
        "alternateName": "educationCertificate",
        "physical": false,
        "additionalType": "AttachmentType",
        "description": "Βεβαίωση φοίτησης αδελφού προπτυχιακού φοιτητή τρέχοντος ακαδημαϊκού έτους από Γραμματεία οικείου Ιδρύματος",
        "name": "Βεβαίωση φοίτησης αδελφού φοιτητή"
    },
    {
        "alternateName": "studentChildrenTaxIncomeDocument",
        "physical": false,
        "additionalType": "AttachmentType",
        "description": "Εκκαθαριστικό σημείωμα τέκνων",
        "name": "Εκκαθαριστικό σημείωμα τέκνων"
    },
    {
        "alternateName": "studentChildrenTaxE1Document",
        "physical": false,
        "additionalType": "AttachmentType",
        "description": "Έντυπο Ε1 τέκνων",
        "name": "Έντυπο Ε1 τέκνων"
    },
    {
        "alternateName": "studentSiblingTaxIncomeDocument",
        "physical": false,
        "additionalType": "AttachmentType",
        "description": "Εκκαθαριστικό σημείωμα ανήλικων τέκνων",
        "name": "Εκκαθαριστικό σημείωμα ανήλικων τέκνων"
    },
    {
        "alternateName": "studentSiblingTaxE1Document",
        "physical": false,
        "additionalType": "AttachmentType",
        "description": "Έντυπο Ε1 ανήλικων τέκνων",
        "name": "Έντυπο Ε1 ανήλικων τέκνων"
    },
    {
        "alternateName": "childOfUnmarriedMotherCertificate",
        "physical": false,
        "additionalType": "AttachmentType",
        "description": "ΥΔ/Βεβαίωση ΜΗ Αναγώρισης Τέκνου Άγαμης Μητέρας",
        "name": "ΥΔ/Βεβαίωση ΜΗ Αναγώρισης τέκνου άγαμης μητέρας"
    },
    {
        "alternateName": "studentHasDisabledSiblingsCertificate",
        "physical": false,
        "additionalType": "AttachmentType",
        "description": "Βεβαίωση Υγειονομικής Επιτροπής για Αναπηρία συγγενών (ΚΕΠΑ)",
        "name": "Βεβαίωση Υγειονομικής Επιτροπής για Αναπηρία συγγενών (ΚΕΠΑ)"
    },
    {
        "alternateName": "studentParentsForeignUnemploymentCertificate",
        "physical": false,
        "additionalType": "AttachmentType",
        "description": "Μεταφρασμένη Βεβαίωση Επιδοτούμενης Ανεργίας ΑΠΟ χώρα προέλευσης γονέων",
        "name": "Μεταφρασμένη Βεβαίωση Επιδοτούμενης Ανεργίας ΑΠΟ χώρα προέλευσης γονέων"
    },
    {
        "alternateName": "studentParentsCyprusUnemploymentCertificate",
        "physical": false,
        "additionalType": "AttachmentType",
        "description": "Μεταφρασμένη Βεβαίωση Επιδοτούμενης Ανεργίας ΑΠΟ χώρα προέλευσης γονέων",
        "name": "Μεταφρασμένη Βεβαίωση Επιδοτούμενης Ανεργίας ΑΠΟ χώρα προέλευσης γονέων"
    },
    {
        "alternateName": "studentForeignIncomeCertificate",
        "physical": false,
        "additionalType": "AttachmentType",
        "description": "Μεταφρασμένη βεβαίωση αρμόδιας Δημόσιας Οικονομικής Υπηρεσίας της χώρας προέλευσης για εισόδημα φοιτητή/τριας, με την αντίστοιχη ισοτιμία σε ευρώ (για Αλλοδαπούς)",
        "name": "Μεταφρασμένη βεβαίωση αρμόδιας Δημόσιας Οικονομικής Υπηρεσίας της χώρας προέλευσης για εισόδημα φοιτητή/τριας, με την αντίστοιχη ισοτιμία σε ευρώ (για Αλλοδαπούς)"
    }
   
]